module leasity.cl/backends/documents-section

go 1.17

require (
	github.com/fasthttp/router v1.4.12
	github.com/jackc/pgx/v4 v4.16.1
	github.com/leekchan/accounting v1.0.0
	github.com/tidwall/gjson v1.14.3
	github.com/valyala/fasthttp v1.40.0
)

require (
	github.com/andybalholm/brotli v1.0.4 // indirect
	github.com/cockroachdb/apd v1.1.0 // indirect
	github.com/jackc/chunkreader/v2 v2.0.1 // indirect
	github.com/jackc/pgconn v1.13.0 // indirect
	github.com/jackc/pgio v1.0.0 // indirect
	github.com/jackc/pgpassfile v1.0.0 // indirect
	github.com/jackc/pgproto3/v2 v2.3.1 // indirect
	github.com/jackc/pgservicefile v0.0.0-20200714003250-2b9c44734f2b // indirect
	github.com/jackc/pgtype v1.12.0 // indirect
	github.com/jackc/puddle v1.3.0 // indirect
	github.com/klauspost/compress v1.15.0 // indirect
	github.com/lib/pq v1.10.7 // indirect
	github.com/pkg/errors v0.8.1 // indirect
	github.com/savsgio/gotils v0.0.0-20220530130905-52f3993e8d6d // indirect
	github.com/shopspring/decimal v1.2.0 // indirect
	github.com/tidwall/match v1.1.1 // indirect
	github.com/tidwall/pretty v1.2.0 // indirect
	github.com/valyala/bytebufferpool v1.0.0 // indirect
	golang.org/x/crypto v0.0.0-20220722155217-630584e8d5aa // indirect
	golang.org/x/text v0.3.7 // indirect
)
